%YAML 1.1
%TAG !u! tag:unity3d.com,2011:
--- !u!21 &2100000
Material:
  serializedVersion: 6
  m_ObjectHideFlags: 0
  m_PrefabParentObject: {fileID: 0}
  m_PrefabInternal: {fileID: 0}
  m_Name: BackGround
  m_Shader: {fileID: 46, guid: 0000000000000000f000000000000000, type: 0}
  m_ShaderKeywords: _EMISSION _SUNDISK_HIGH_QUALITY
  m_LightmapFlags: 2
  m_CustomRenderQueue: -1
  stringTagMap: {}
  m_SavedProperties:
    serializedVersion: 2
    m_TexEnvs:
      data:
        first:
          name: _MainTex
        second:
          m_Texture: {fileID: 2800000, guid: c09bcc87e021246fb998571eb7ac3951, type: 3}
          m_Scale: {x: 25, y: 25}
          m_Offset: {x: 0, y: 0}
      data:
        first:
          name: _BumpMap
        second:
          m_Texture: {fileID: 0}
          m_Scale: {x: 1, y: 1}
          m_Offset: {x: 0, y: 0}
      data:
        first:
          name: _DetailNormalMap
        second:
          m_Texture: {fileID: 0}
          m_Scale: {x: 1, y: 1}
          m_Offset: {x: 0, y: 0}
      data:
        first:
          name: _ParallaxMap
        second:
          m_Texture: {fileID: 0}
          m_Scale: {x: 1, y: 1}
          m_Offset: {x: 0, y: 0}
      data:
        first:
          name: _OcclusionMap
        second:
          m_Texture: {fileID: 0}
          m_Scale: {x: 1, y: 1}
          m_Offset: {x: 0, y: 0}
      data:
        first:
          name: _EmissionMap
        second:
          m_Texture: {fileID: 2800000, guid: c09bcc87e021246fb998571eb7ac3951, type: 3}
          m_Scale: {x: 25, y: 25}
          m_Offset: {x: 0, y: 0}
      data:
        first:
          name: _DetailMask
        second:
          m_Texture: {fileID: 0}
          m_Scale: {x: 1, y: 1}
          m_Offset: {x: 0, y: 0}
      data:
        first:
          name: _DetailAlbedoMap
        second:
          m_Texture: {fileID: 0}
          m_Scale: {x: 10, y: 10}
          m_Offset: {x: 0, y: 0}
      data:
        first:
          name: _MetallicGlossMap
        second:
          m_Texture: {fileID: 0}
          m_Scale: {x: 1, y: 1}
          m_Offset: {x: 0, y: 0}
      data:
        first:
          name: _DetailTex
        second:
          m_Texture: {fileID: 2800000, guid: c09bcc87e021246fb998571eb7ac3951, type: 3}
          m_Scale: {x: 1, y: 1}
          m_Offset: {x: 0, y: 0}
    m_Floats:
      data:
        first:
          name: _SrcBlend
        second: 1
      data:
        first:
          name: _DstBlend
        second: 0
      data:
        first:
          name: _Cutoff
        second: 0.5
      data:
        first:
          name: _Exposure
        second: 1.3
      data:
        first:
          name: _SunDisk
        second: 2
      data:
        first:
          name: _SunSize
        second: 0.04
      data:
        first:
          name: _AtmosphereThickness
        second: 1
      data:
        first:
          name: _Parallax
        second: 0.027
      data:
        first:
          name: _ZWrite
        second: 1
      data:
        first:
          name: _Glossiness
        second: 0
      data:
        first:
          name: _BumpScale
        second: 1
      data:
        first:
          name: _OcclusionStrength
        second: 1
      data:
        first:
          name: _DetailNormalMapScale
        second: 1
      data:
        first:
          name: _UVSec
        second: 0
      data:
        first:
          name: _Mode
        second: 0
      data:
        first:
          name: _Metallic
        second: 0
      data:
        first:
          name: _Stencil
        second: 0
      data:
        first:
          name: _StencilComp
        second: 8
      data:
        first:
          name: _StencilOp
        second: 0
      data:
        first:
          name: _StencilReadMask
        second: 255
      data:
        first:
          name: _StencilWriteMask
        second: 255
      data:
        first:
          name: _ColorMask
        second: 15
      data:
        first:
          name: _UseUIAlphaClip
        second: 0
      data:
        first:
          name: _Strength
        second: 0.2
    m_Colors:
      data:
        first:
          name: _EmissionColor
        second: {r: 1, g: 1, b: 1, a: 1}
      data:
        first:
          name: _Color
        second: {r: 0.124891855, g: 0.77205884, b: 0.15613446, a: 1}
      data:
        first:
          name: _SkyTint
        second: {r: 0.5, g: 0.5, b: 0.5, a: 1}
      data:
        first:
          name: _GroundColor
        second: {r: 0.369, g: 0.349, b: 0.341, a: 1}
